module gitlab.com/TECHNOFAB/nrpc-next/nrpc.go

go 1.18

require (
	github.com/nats-io/nats-server/v2 v2.8.4
	github.com/nats-io/nats.go v1.16.0
	go.opentelemetry.io/otel v1.7.0
	go.opentelemetry.io/otel/trace v1.7.0
	google.golang.org/protobuf v1.28.0
)

require (
	github.com/go-logr/logr v1.2.3 // indirect
	github.com/go-logr/stdr v1.2.2 // indirect
	github.com/klauspost/compress v1.15.7 // indirect
	github.com/minio/highwayhash v1.0.2 // indirect
	github.com/nats-io/jwt/v2 v2.3.0 // indirect
	github.com/nats-io/nkeys v0.3.0 // indirect
	github.com/nats-io/nuid v1.0.1 // indirect
	golang.org/x/crypto v0.0.0-20220622213112-05595931fe9d // indirect
	golang.org/x/sys v0.0.0-20220704084225-05e143d24a9e // indirect
	golang.org/x/time v0.0.0-20220609170525-579cf78fd858 // indirect
)
